-48 936
488 -496
376 -120 -184 288
104 -40 48 -56 -64 -72 -80 472
-24 -24 240 -112 -120 432
112 -120 288 -152 288
-56 504 -56 352
-72 -64 -40 -8 -200 -32 -24 496
-40 -32 -24 -16 -8 -16 -24 -32 736
-992
